Division,WeightClassKg,Place,Name,Team,BodyweightKg,Best3SquatKg,Best3BenchKg,Best3DeadliftKg,TotalKg,Equipment,Event,Sex,BirthDate
Boys,51.71,1,Onesimo Esquivel,San Marcos,51.71,142.88,77.11,167.83,387.82,Single-ply,SBD,M,
Boys,51.71,2,James Medrano,Seguin,49.03,136.08,72.57,145.15,353.8,Single-ply,SBD,M,
Boys,51.71,3,Austin Patrick,Buda Johnson,49.21,117.93,68.04,133.81,319.78,Single-ply,SBD,M,
Boys,51.71,4,Karson Kelnar,Buda Hays,46.77,95.25,49.9,97.52,242.67,Single-ply,SBD,M,
Boys,51.71,5,Levi Edwards,Comal Canyon,51.71,63.5,54.43,102.06,219.99,Single-ply,SBD,M,
Boys,55.79,1,Armando Reta,Kyle Lehman,55.7,170.1,83.91,158.76,412.77,Single-ply,SBD,M,
Boys,55.79,2,Dj Hamilton,Buda Johnson,55.57,147.42,83.91,151.95,383.29,Single-ply,SBD,M,
Boys,55.79,3,Seydou Kaba,Jarrell,55.52,138.35,79.38,154.22,371.95,Single-ply,SBD,M,
Boys,55.79,4,Tony Harkey,Seguin,54.11,129.27,74.84,140.61,344.73,Single-ply,SBD,M,
Boys,55.79,5,Noah Bohnert,Comfort,55.34,106.59,77.11,149.69,333.39,Single-ply,SBD,M,
Boys,55.79,6,Gabriel Soliz,Seguin,55.52,117.93,72.57,136.08,326.59,Single-ply,SBD,M,
Boys,55.79,7,Eden Mendez,San Marcos,53.21,104.33,56.7,142.88,303.91,Single-ply,SBD,M,
Boys,55.79,8,Tucker White,Jarrell,54.61,106.59,65.77,131.54,303.91,Single-ply,SBD,M,
Boys,55.79,9,Diego Carmona,San Marcos,54.84,97.52,65.77,92.99,256.28,Single-ply,SBD,M,
Boys,59.87,1,Brayden Bromonsky,Kyle Lehman,59.38,288.03,136.08,249.48,673.58,Single-ply,SBD,M,
Boys,59.87,2,Julian Enriquez,Buda Johnson,59.65,167.83,106.59,185.97,460.4,Single-ply,SBD,M,
Boys,59.87,3,Nate Cavarrubio,Buda Johnson,59.38,167.83,97.52,174.63,439.98,Single-ply,SBD,M,
Boys,59.87,4,Justin Barcenas,Kyle Lehman,59.87,145.15,77.11,176.9,399.16,Single-ply,SBD,M,
Boys,59.87,5,Ezequiel Davila,San Marcos,59.38,133.81,92.99,149.69,376.48,Single-ply,SBD,M,
Boys,59.87,6,Ayden Greene,Jarrell,56.7,99.79,68.04,113.4,281.23,Single-ply,SBD,M,
Boys,59.87,7,Wyatt Deem,Comfort,56.56,95.25,65.77,115.67,276.69,Single-ply,SBD,M,
Boys,59.87,8,Nehemiah Tanus,Comal Canyon,58.51,72.57,54.43,113.4,240.4,Single-ply,SBD,M,
Boys,59.87,DQ,Angel Salazar,Seguin,59.6,138.35,86.18,,,Single-ply,SBD,M,
Boys,67.13,1,Christian Jeanes,Kyle Lehman,66.81,185.97,124.74,217.72,528.44,Single-ply,SBD,M,
Boys,67.13,2,Freddie Hastings,Seguin,66.68,185.97,117.93,185.97,489.88,Single-ply,SBD,M,
Boys,67.13,3,Josh Soliz,Seguin,64.27,185.97,117.93,179.17,483.08,Single-ply,SBD,M,
Boys,67.13,4,Zach Decker,San Marcos,65.36,183.7,83.91,206.38,474,Single-ply,SBD,M,
Boys,67.13,5,Ikaika Engleman,Kyle Lehman,67.09,161.03,81.65,195.04,437.72,Single-ply,SBD,M,
Boys,67.13,6,Julio Colon,Killeen Ellison,65.82,156.49,92.99,183.7,433.18,Single-ply,SBD,M,
Boys,67.13,7,Fabio Reyes,Kyle Lehman,64.46,136.08,102.06,176.9,415.04,Single-ply,SBD,M,
Boys,67.13,8,Harrison Davis,Buda Johnson,65.18,145.15,88.45,170.1,403.7,Single-ply,SBD,M,
Boys,67.13,9,Lucas Yull,Buda Hays,65.09,136.08,99.79,154.22,390.09,Single-ply,SBD,M,
Boys,67.13,10,Anthony Cote,Jarrell,65.14,147.42,92.99,147.42,387.82,Single-ply,SBD,M,
Boys,67.13,11,Christian Smith,Buda Hays,66.59,158.76,79.38,147.42,385.55,Single-ply,SBD,M,
Boys,67.13,12,Jayden Harbison,Kyle Lehman,63.41,127.01,68.04,151.95,347,Single-ply,SBD,M,
Boys,74.84,1,Miguel Guerra,Kyle Lehman,74.03,199.58,111.13,224.53,535.24,Single-ply,SBD,M,
Boys,74.84,2,Ashton Durst,Buda Johnson,74.48,217.72,113.4,201.85,532.97,Single-ply,SBD,M,
Boys,74.84,3,Rafaelshamgar Boyd,Killeen Ellison,74.8,197.31,108.86,222.26,528.44,Single-ply,SBD,M,
Boys,74.84,4,Ryan Nguyen,Comal Canyon,74.84,199.58,95.25,192.78,487.61,Single-ply,SBD,M,
Boys,74.84,5,Logan Aguirre,Comfort,69.76,167.83,83.91,190.51,442.25,Single-ply,SBD,M,
Boys,74.84,6,Logan Gomez,Comal Canyon,73.75,138.35,90.72,170.1,399.16,Single-ply,SBD,M,
Boys,74.84,7,Sam Zarbaugh,Dripping Springs,73.12,140.61,95.25,142.88,378.75,Single-ply,SBD,M,
Boys,74.84,8,Dylan Pursley,Jarrell,68.58,124.74,72.57,158.76,356.07,Single-ply,SBD,M,
Boys,74.84,9,Jarod Crouch,Buda Hays,70.76,117.93,70.31,136.08,324.32,Single-ply,SBD,M,
Boys,74.84,DQ,Patrick Lopez,Dripping Springs,73.57,,,,,Single-ply,SBD,M,
Boys,82.1,1,Diego Macedo,Kyle Lehman,81.6,306.17,161.03,285.76,752.96,Single-ply,SBD,M,
Boys,82.1,2,Jiovanni Thierry,Jarrell,80.78,204.12,115.67,244.94,564.72,Single-ply,SBD,M,
Boys,82.1,3,Jerivan Contreras,Seguin,81.28,190.51,142.88,226.8,560.19,Single-ply,SBD,M,
Boys,82.1,4,Brandon Melendez,Buda Johnson,80.33,208.65,142.88,199.58,551.11,Single-ply,SBD,M,
Boys,82.1,5,Daniel Farr,Jarrell,77.43,183.7,133.81,204.12,521.63,Single-ply,SBD,M,
Boys,82.1,6,Michael Bischoff,Buda Hays,80.6,181.44,127.01,183.7,492.15,Single-ply,SBD,M,
Boys,82.1,7,Jonathon Sepeda,Comal Canyon,80.01,167.83,106.59,183.7,458.13,Single-ply,SBD,M,
Boys,82.1,8,Reid Mohon,Dripping Springs,81.83,165.56,102.06,176.9,444.52,Single-ply,SBD,M,
Boys,82.1,9,Ty Frankney,Dripping Springs,81.74,161.03,97.52,183.7,442.25,Single-ply,SBD,M,
Boys,82.1,10,Marshall Williams,Dripping Springs,75.66,151.95,102.06,170.1,424.11,Single-ply,SBD,M,
Boys,82.1,11,Jack Babington,Dripping Springs,80.06,142.88,86.18,170.1,399.16,Single-ply,SBD,M,
Boys,82.1,12,Matthew Medina,Comfort,80.69,115.67,61.23,129.27,306.17,Single-ply,SBD,M,
Boys,82.1,DQ,Konstantine Cross,Killeen Ellison,78.24,,102.06,,,Single-ply,SBD,M,
Boys,82.1,DQ,Khamari McClain,Killeen Ellison,81.6,,104.33,,,Single-ply,SBD,M,
Boys,89.81,1,Caleb Esparza,Kyle Lehman,89.77,351.53,183.7,251.74,786.98,Single-ply,SBD,M,
Boys,89.81,2,Dominick Allison,Killeen Ellison,83.73,215.46,142.88,210.92,569.26,Single-ply,SBD,M,
Boys,89.81,3,Jake Hooks,Buda Johnson,88.09,219.99,122.47,210.92,553.38,Single-ply,SBD,M,
Boys,89.81,4,Zech Martin,San Marcos,87.95,188.24,117.93,183.7,489.88,Single-ply,SBD,M,
Boys,89.81,5,Julian Ordonez,Comal Canyon,85.91,176.9,120.2,183.7,480.81,Single-ply,SBD,M,
Boys,89.81,6,Brayden Chelmo,Manor,87.41,170.1,113.4,190.51,474,Single-ply,SBD,M,
Boys,89.81,7,Hunter Levay,Comal Canyon,88.41,158.76,117.93,192.78,469.47,Single-ply,SBD,M,
Boys,89.81,8,Marcus Hernandez #5,Buda Hays,86,167.83,88.45,172.37,428.64,Single-ply,SBD,M,
Boys,89.81,9,Blas Mendez,Buda Hays,85.64,158.76,90.72,161.03,410.5,Single-ply,SBD,M,
Boys,89.81,10,Jacob Crosby,Buda Hays,89.72,145.15,95.25,129.27,369.68,Single-ply,SBD,M,
Boys,89.81,11,Cyrus Falcon,Comfort,82.74,133.81,61.23,170.1,365.14,Single-ply,SBD,M,
Boys,89.81,DQ,Hayden Alba,Dripping Springs,83.96,127.01,90.72,,,Single-ply,SBD,M,
Boys,89.81,DQ,Beau Favre,Dripping Springs,86.23,174.63,,,,Single-ply,SBD,M,
Boys,99.79,1,Joseph Painter,Comal Canyon,97.16,208.65,147.42,210.92,566.99,Single-ply,SBD,M,
Boys,99.79,2,Guarionex Suarez,San Marcos,92.03,226.8,122.47,210.92,560.19,Single-ply,SBD,M,
Boys,99.79,3,Skylar Germany,Seguin,95.3,188.24,124.74,197.31,510.29,Single-ply,SBD,M,
Boys,99.79,4,Tristan Compton,Buda Johnson,96.34,199.58,108.86,183.7,492.15,Single-ply,SBD,M,
Boys,99.79,5,Jaiden Morin,San Antonio Wagner,97.02,138.35,102.06,161.03,401.43,Single-ply,SBD,M,
Boys,99.79,6,Dane Kizer,Dripping Springs,99.56,149.69,92.99,154.22,396.89,Single-ply,SBD,M,
Boys,99.79,7,James Bruce,San Antonio Wagner,94.3,142.88,83.91,154.22,381.02,Single-ply,SBD,M,
Boys,99.79,DQ,Damian Cruz-Galvan,San Marcos,93.08,,97.52,,,Single-ply,SBD,M,
Boys,99.79,DQ,Christian Ramirez #8,Buda Hays,98.2,,,,,Single-ply,SBD,M,
Boys,109.77,1,Nicholas Luna,Kyle Lehman,103.74,244.94,142.88,249.48,637.3,Single-ply,SBD,M,
Boys,109.77,2,Ezrah Machuca,Buda Johnson,101.24,265.35,136.08,183.7,585.13,Single-ply,SBD,M,
Boys,109.77,3,Jackson Key,Dripping Springs,103.83,215.46,136.08,206.38,557.92,Single-ply,SBD,M,
Boys,109.77,4,Abraham Valenzuela,San Antonio Wagner,105.64,174.63,136.08,226.8,537.51,Single-ply,SBD,M,
Boys,109.77,5,Lucas Francis,Comal Canyon,105.41,181.44,95.25,229.06,505.76,Single-ply,SBD,M,
Boys,109.77,6,Terrell August,San Antonio Wagner,108.68,167.83,124.74,188.24,480.81,Single-ply,SBD,M,
Boys,109.77,7,Sergio Segovia,San Marcos,101.97,188.24,129.27,156.49,474,Single-ply,SBD,M,
Boys,109.77,8,Andrew Justin Perez,San Marcos,105.51,165.56,122.47,172.37,460.4,Single-ply,SBD,M,
Boys,109.77,9,Tate Davis,Comal Canyon,109.41,163.29,99.79,190.51,453.59,Single-ply,SBD,M,
Boys,109.77,10,Gabriel Martin,Killeen Ellison,109.68,179.17,102.06,167.83,449.06,Single-ply,SBD,M,
Boys,109.77,DQ,Tristan Bormann,Buda Johnson,107.41,,140.61,206.38,,Single-ply,SBD,M,
Boys,124.74,1,Jalen Miller,Kyle Lehman,118.21,272.16,142.88,240.4,655.44,Single-ply,SBD,M,
Boys,124.74,2,Armando Molina,Killeen Ellison,120.34,229.06,161.03,235.87,625.96,Single-ply,SBD,M,
Boys,124.74,3,Garrett Zuma,Buda Johnson,119.61,251.74,131.54,217.72,601.01,Single-ply,SBD,M,
Boys,124.74,4,Caleb Gomez,Buda Johnson,113.99,258.55,124.74,215.46,598.74,Single-ply,SBD,M,
Boys,124.74,5,Nathan Rodriguez,Buda Hays,114.85,233.6,151.95,201.85,587.4,Single-ply,SBD,M,
Boys,124.74,6,Brian Gonzales #3,San Antonio Wagner,121.25,226.8,138.35,190.51,555.65,Single-ply,SBD,M,
Boys,124.74,7,Alexander Robinson,San Marcos,117.89,204.12,154.22,188.24,546.58,Single-ply,SBD,M,
Boys,124.74,8,Cole Hughes,Manor,115.35,204.12,113.4,197.31,514.83,Single-ply,SBD,M,
Boys,124.74,9,Wesley Donner,Manor,116.89,195.04,117.93,190.51,503.49,Single-ply,SBD,M,
Boys,124.74,10,Hunter Schonefeld,Comal Canyon,122.2,195.04,106.59,201.85,503.49,Single-ply,SBD,M,
Boys,124.74,11,Zaphanaius Thioana,San Antonio Wagner,121.47,183.7,102.06,183.7,469.47,Single-ply,SBD,M,
Boys,124.74,12,Elijah Perez,Manor,112.76,170.1,124.74,172.37,467.2,Single-ply,SBD,M,
Boys,124.74,13,Andre Esquivel,San Antonio Wagner,112.54,124.74,92.99,151.95,369.68,Single-ply,SBD,M,
Boys,124.74,14,Santiago Pinedo,Comfort,120.7,99.79,52.16,102.06,254.01,Single-ply,SBD,M,
Boys,124.74,DQ,Tyson Trahan,Dripping Springs,113.26,142.88,,,,Single-ply,SBD,M,
Boys,139.71,1,Dylan Clifton,Buda Hays,133.22,226.8,147.42,240.4,614.62,Single-ply,SBD,M,
Boys,139.71,2,Martin Hernandez #5,Comfort,126.78,229.06,142.88,238.14,610.08,Single-ply,SBD,M,
Boys,139.71,3,Mario Cavazos,Seguin,126.92,215.46,124.74,204.12,544.31,Single-ply,SBD,M,
Boys,139.71,4,Christian Donalson,San Antonio Wagner,130.77,208.65,124.74,210.92,544.31,Single-ply,SBD,M,
Boys,139.71,5,Kevin Morales,San Marcos,131.59,195.04,117.93,192.78,505.76,Single-ply,SBD,M,
Boys,139.71,6,Cody Ceder,Jarrell,126.64,183.7,108.86,176.9,469.47,Single-ply,SBD,M,
Boys,139.71+,1,Davarion Godley,Manor,177.63,197.31,117.93,219.99,535.24,Single-ply,SBD,M,
Boys,139.71+,2,Jerry Allen #2,San Antonio Wagner,147.46,197.31,113.4,192.78,503.49,Single-ply,SBD,M,
Boys,,NS,Joel Garza,San Antonio Wagner,,,,,,Single-ply,SBD,M,
Boys,,NS,Jyrine Cambell,San Antonio Wagner,,,,,,Single-ply,SBD,M,
Boys,,NS,Jayden Cofield,Manor,,,,,,Single-ply,SBD,M,
Boys,,NS,Damien Godley,Manor,,,,,,Single-ply,SBD,M,
Boys,,NS,Devin Scura,Manor,,,,,,Single-ply,SBD,M,
Boys,,NS,Darion Godley,Manor,,172.37,113.4,195.04,,Single-ply,SBD,M,
Boys,,NS,Nehemiah Hernandez,San Antonio Wagner,,,,,,Single-ply,SBD,M,
Boys,,NS,Jesus Valle,Jarrell,,,,,,Single-ply,SBD,M,
Boys,,NS,Ethan Jones,Buda Hays,,,,,,Single-ply,SBD,M,
Boys,,NS,Aaron Reha,Comal Canyon,,,,,,Single-ply,SBD,M,
