Place,Name,Sex,Event,Division,WeightClassKg,Equipment,BirthYear,Team,State,BodyweightKg,Squat1Kg,Squat2Kg,Squat3Kg,Best3SquatKg,Bench1Kg,Bench2Kg,Bench3Kg,Best3BenchKg,Deadlift1Kg,Deadlift2Kg,Deadlift3Kg,Best3DeadliftKg,TotalKg,Age,BirthDate
G,Madelynne Stroud,F,SBD,FR-G,75,Raw,1999,,IL,72.85,-127.5,135,-140,135,70,75,-82.5,75,130,137.5,145,145,355,,
G,Amaya Laue,F,SBD,FR-G,90,Raw,2007,,MN,83.25,-102.5,-102.5,115,115,47.5,52.5,-60,52.5,110,117.5,125,125,292.5,,
G,Jilian Dawe,F,SBD,FR-G,82.5,Raw,2001,,WI,76.95,120,127.5,132.5,132.5,62.5,67.5,-70,67.5,120,127.5,-132.5,127.5,327.5,,
G,Erika Jackett,F,SBD,FR-G,82.5,Raw,2001,Bluedevil's Powerlifting Club,WI,77.95,97.5,110,-120,110,55,62.5,-67.5,62.5,117.5,127.5,137.5,137.5,310,,
1,Lexi Kleinfehn,F,SBD,FR-Jr,56,Raw,2001,,MN,55.2,102.5,110,115,115,52.5,57.5,60,60,125,135,140,140,315,,
1,Maggie Stout,F,SBD,FR-Jr,60,Raw,2000,,MN,59.55,117.5,125,130,130,70,75,-77.5,75,162.5,172.5,182.5,182.5,387.5,,
2,Paige Perkins,F,SBD,FR-Jr,60,Raw,1999,,WI,59.85,122.5,135,-142.5,135,60,65,70,70,142.5,152.5,160,160,365,,
1,Annita Nemetz,F,SBD,FR-Jr,75,Raw,2000,,MN,70,135,142.5,145,145,75,82.5,85,85,175,182.5,187.5,187.5,417.5,,
2,Marissa Erickson #1,F,SBD,FR-Jr,75,Raw,2000,,IA,73.35,142.5,152.5,-165,152.5,80,87.5,-92.5,87.5,140,150,152.5,152.5,392.5,,
DQ,Orianna Horel-Borrero,F,SBD,FR-Jr,90,Raw,2001,Bluedevil's Powerlifting Club,WI,87.25,142.5,147.5,150,150,55,57.5,-60,57.5,145,150,-155,150,,,
1,Cecilia Gagnier,F,SBD,FR-Jr,67.5,Raw,2001,,MN,66.45,142.5,-152.5,-152.5,142.5,119,-123.5,123.5,123.5,167.5,175,-185,175,441,,
2,Alica Bushhousen,F,SBD,FR-Jr,67.5,Raw,1999,,NE,67.2,130,137.5,142.5,142.5,85,90,-95,90,152.5,162.5,172.5,172.5,405,,
3,Emma Brown #5,F,SBD,FR-Jr,67.5,Raw,2001,,MN,66.35,117.5,125,130,130,75,-80,-80,75,170,180,187.5,187.5,392.5,,
DQ,Natasha Komperud,F,SBD,FR-Jr,67.5,Raw,2002,Bluedevil's Powerlifting Club,WI,67.25,-150,-150,-150,,47.5,52.5,57.5,57.5,132.5,145,-157.5,145,,,
1,Kristi Trussell,F,SBD,FR-M1,60,Raw,1983,,MN,57.7,115,120,125,125,75,80,82.5,82.5,130,140,147.5,147.5,355,,
2,Cari Koktavy,F,SBD,FR-M1,60,Raw,1980,,MN,57.8,105,115,-120,115,62.5,-67.5,67.5,67.5,120,130,135,135,317.5,,
1,Lindsey Johnson #1,F,SBD,FR-M1,75,Raw,1982,,MN,71.25,125,132.5,-137.5,132.5,70,-75,75,75,157.5,167.5,-172.5,167.5,375,,
2,Dorene Munoz,F,SBD,FR-M1,75,Raw,1978,,MN,74.95,107.5,115,125,125,72.5,77.5,80,80,120,130,140,140,345,,
3,Terese Market,F,SBD,FR-M1,75,Raw,1980,,MN,73.6,-110,-110,110,110,67.5,-72.5,-72.5,67.5,132.5,140,-145,140,317.5,,
1,Tanya Snell,F,SBD,FR-M1,90,Raw,1974,,WI,88.65,125,130,-135,130,67.5,-75,75,75,137.5,150,-155,150,355,,
1,Carrie Varco,F,SBD,FR-M1,100+,Raw,1983,,MN,130.1,170,180,187.5,187.5,92.5,97.5,-102.5,97.5,167.5,177.5,187.5,187.5,472.5,,
2,Mellissa Spitzer,F,SBD,FR-M1,100+,Raw,1979,,SD,120,135,145,-155,145,67.5,72.5,77.5,77.5,145,155,-167.5,155,377.5,,
3,April Maves,F,SBD,FR-M1,100+,Raw,1977,Bluedevil's Powerlifting Club,WI,120.45,107.5,115,122.5,122.5,65,70,-75,70,115,125,-135,125,317.5,,
1,Amy Lueking,F,SBD,FR-M1,67.5,Raw,1981,,NE,66.8,100,105,107.5,107.5,52.5,55,57.5,57.5,120,125,130,130,295,,
1,Carla Green,F,SBD,FR-M1,82.5,Raw,1982,,IL,79.8,110,115,-120,115,60,65,-67.5,65,150,160,165,165,345,,
1,Kelley Sherwin,F,SBD,FR-M2,48,Raw,1972,,WI,47.6,87.5,92.5,-97.5,92.5,55,57.5,-60,57.5,105,115,-125,115,265,,
1,Tracey Quast,F,SBD,FR-M2,56,Raw,1968,,WI,55.05,97.5,107.5,110,110,57.5,62.5,-65,62.5,122.5,132.5,-137.5,132.5,305,,
1,Lynn Pietig,F,SBD,FR-M2,60,Raw,1966,,MN,59.15,115,122.5,-127.5,122.5,50,55,-57.5,55,145,155,-163,155,332.5,,
2,Janis Quinlan,F,SBD,FR-M2,60,Raw,1964,,MN,59.05,90,-95,-95,90,52.5,55,57.5,57.5,130,137.5,-142.5,137.5,285,,
1,Jennifer Rosario,F,SBD,FR-M2,90,Raw,1972,,MN,86.6,132.5,142.5,150,150,75,80,82.5,82.5,155,167.5,170,170,402.5,,
1,Wendy Hester,F,SBD,FR-M2,100+,Raw,1964,,MO,108.3,95,100,105,105,62.5,67.5,-70,67.5,135,142.5,-150,142.5,315,,
1,Lori Walz,F,SBD,FR-M2,67.5,Raw,1965,,MN,60.9,60,65,72.5,72.5,42.5,47.5,-50,47.5,92.5,100,110,110,230,,
1,Rachel Olstad,F,SBD,FR-M2,82.5,Raw,1971,,MN,81.55,110,115,120,120,70,72.5,-75,72.5,137.5,147.5,152.5,152.5,345,,
1,Beth Remarcke,F,SBD,FR-M3,60,Raw,1963,,MN,59.4,-75,80,82.5,82.5,-50,50,55,55,95,105,115,115,252.5,,
1,Sophie Palmer,F,SBD,FR-O,48,Raw,1998,,MN,47.95,-105,110,-115,110,65,70,72.5,72.5,125,-132.5,135,135,317.5,,
1,Anh Phan #2,F,SBD,FR-O,52,Raw,1999,,IL,51.8,112.5,120,-125,120,70,-75,,70,150,157.5,-162.5,157.5,347.5,,
2,Sam Kroll,F,SBD,FR-O,52,Raw,1997,,MN,51.45,107.5,112.5,-117.5,112.5,65,72.5,75,75,137.5,-140,140,140,327.5,,
1,Rachel Showers,F,SBD,FR-O,56,Raw,1995,Integrative Strength Systems,MN,54,120,125,132.5,132.5,77.5,82.5,-85,82.5,150,160,167.5,167.5,382.5,,
2,Lexi Kleinfehn,F,SBD,FR-O,56,Raw,2001,,MN,55.2,102.5,110,115,115,52.5,57.5,60,60,125,135,140,140,315,,
3,Tracey Quast,F,SBD,FR-O,56,Raw,1968,,WI,55.05,97.5,107.5,110,110,57.5,62.5,-65,62.5,122.5,132.5,-137.5,132.5,305,,
1,Maggie Stout,F,SBD,FR-O,60,Raw,2000,,MN,59.55,117.5,125,130,130,70,75,-77.5,75,162.5,172.5,182.5,182.5,387.5,,
2,Paige Perkins,F,SBD,FR-O,60,Raw,1999,,WI,59.85,122.5,135,-142.5,135,60,65,70,70,142.5,152.5,160,160,365,,
3,Kristi Trussell,F,SBD,FR-O,60,Raw,1983,,MN,57.7,115,120,125,125,75,80,82.5,82.5,130,140,147.5,147.5,355,,
4,Erica Varner,F,SBD,FR-O,60,Raw,1994,Integrative Strength Systems,WI,59.7,105,112.5,120,120,60,-65,65,65,145,152.5,160,160,345,,
5,Lynn Pietig,F,SBD,FR-O,60,Raw,1966,,MN,59.15,115,122.5,-127.5,122.5,50,55,-57.5,55,145,155,-163,155,332.5,,
6,Cari Koktavy,F,SBD,FR-O,60,Raw,1980,,MN,57.8,105,115,-120,115,62.5,-67.5,67.5,67.5,120,130,135,135,317.5,,
7,Janis Quinlan,F,SBD,FR-O,60,Raw,1964,,MN,59.05,90,-95,-95,90,52.5,55,57.5,57.5,130,137.5,-142.5,137.5,285,,
1,Desirae Kramer,F,SBD,FR-O,75,Raw,1995,,MN,74.6,160,172.5,180,180,82.5,87.5,90,90,182.5,197.5,-210,197.5,467.5,,
2,Acacia Masters,F,SBD,FR-O,75,Raw,1997,Integrative Strength Systems,MN,73.75,145,152.5,-157.5,152.5,77.5,82.5,-85,82.5,167.5,175,-180,175,410,,
3,Jordan Davies,F,SBD,FR-O,75,Raw,1993,,MN,74.15,135,142.5,-147.5,142.5,72.5,77.5,-82.5,77.5,175,182.5,-187.5,182.5,402.5,,
4,Danielle Nazarians,F,SBD,FR-O,75,Raw,1997,,MN,73.05,122.5,130,135,135,67.5,72.5,75,75,160,172.5,182.5,182.5,392.5,,
5,Marissa Erickson #1,F,SBD,FR-O,75,Raw,2000,,IA,73.35,142.5,152.5,-165,152.5,80,87.5,-92.5,87.5,140,150,152.5,152.5,392.5,,
6,Danielle Campbell,F,SBD,FR-O,75,Raw,1990,,MO,74,132.5,-142.5,-142.5,132.5,75,80,-82.5,80,150,160,165,165,377.5,,
7,Samantha Josephson,F,SBD,FR-O,75,Raw,1998,,NE,74.6,122.5,125,,125,72.5,-77.5,77.5,77.5,130,140,-145,140,342.5,,
8,Anna Hornbacher,F,SBD,FR-O,75,Raw,1999,,IL,74.05,110,115,-120,115,57.5,60,62.5,62.5,142.5,150,155,155,332.5,,
9,Melanie Caudillo,F,SBD,FR-O,75,Raw,1984,,NE,73.8,100,105,110,110,52.5,-55,,52.5,110,115,-120,115,277.5,,
1,Jennifer Rosario,F,SBD,FR-O,90,Raw,1972,,MN,86.6,132.5,142.5,150,150,75,80,82.5,82.5,155,167.5,170,170,402.5,,
DQ,Orianna Horel-Borrero,F,SBD,FR-O,90,Raw,2001,Bluedevil's Powerlifting Club,WI,87.25,142.5,147.5,150,150,55,57.5,-60,57.5,145,150,-155,150,,,
1,Molly Gill #2,F,SBD,FR-O,100,Raw,1990,,MN,95.75,120,127.5,137.5,137.5,77.5,85,90,90,120,130,132.5,132.5,360,,
1,Kenady Benning,F,SBD,FR-O,100+,Raw,1998,Integrative Strength Systems,MN,113.75,182.5,192.5,200,200,75,80,85,85,185,197.5,210,210,495,,
2,Carrie Varco,F,SBD,FR-O,100+,Raw,1983,,MN,130.1,170,180,187.5,187.5,92.5,97.5,-102.5,97.5,167.5,177.5,187.5,187.5,472.5,,
3,Mellissa Spitzer,F,SBD,FR-O,100+,Raw,1979,,SD,120,135,145,-155,145,67.5,72.5,77.5,77.5,145,155,-167.5,155,377.5,,
4,April Maves,F,SBD,FR-O,100+,Raw,1977,Bluedevil's Powerlifting Club,WI,120.45,107.5,115,122.5,122.5,65,70,-75,70,115,125,-135,125,317.5,,
DQ,Dani Myers Glynn,F,SBD,FR-O,100+,Raw,1991,,OH,109.45,-207.5,-215,-220,,105,110,115,115,207.5,217.5,-225,217.5,,,
1,Jacqueline Malayter,F,SBD,FR-O,67.5,Raw,1998,,IN,67.35,165,175,-180,175,110,115,-120,115,182.5,190,195,195,485,,
2,Evelyn Mendoza,F,SBD,FR-O,67.5,Raw,1999,,WI,66.85,157.5,-165,167.5,167.5,80,82.5,-85,82.5,-167.5,167.5,-175,167.5,417.5,,
3,Alica Bushhousen,F,SBD,FR-O,67.5,Raw,1999,,NE,67.2,130,137.5,142.5,142.5,85,90,-95,90,152.5,162.5,172.5,172.5,405,,
4,Krystle Deede,F,SBD,FR-O,67.5,Raw,1986,,WI,64.55,125,135,140,140,82.5,-87.5,87.5,87.5,145,155,165,165,392.5,,
5,Amanda Heath,F,SBD,FR-O,67.5,Raw,1998,,IL,64.75,132.5,-140,140,140,75,80,82.5,82.5,150,160,-167.5,160,382.5,,
6,Emily Schmid,F,SBD,FR-O,67.5,Raw,1997,,IA,67.05,-137.5,-142.5,142.5,142.5,75,80,-82.5,80,140,152.5,-160,152.5,375,,
7,Lea Connolly,F,SBD,FR-O,67.5,Raw,2003,Bluedevil's Powerlifting Club,WI,66.35,122.5,132.5,145,145,57.5,62.5,67.5,67.5,125,135,142.5,142.5,355,,
8,Rita Carrington,F,SBD,FR-O,67.5,Raw,1991,,MO,66.1,-127.5,127.5,135,135,60,65,-67.5,65,135,145,150,150,350,,
9,Cady Dueber,F,SBD,FR-O,67.5,Raw,1990,Integrative Strength Systems,MN,64.7,102.5,110,-115,110,72.5,77.5,-80,77.5,135,145,-150,145,332.5,,
10,Sarah Vicchiollo,F,SBD,FR-O,67.5,Raw,2003,,WI,62.95,60,67.5,75,75,42.5,47.5,52.5,52.5,62.5,75,-85,75,202.5,,
DQ,Catherine Lorentz,F,SBD,FR-O,67.5,Raw,2005,,MN,64.05,92.5,102.5,-107.5,102.5,-50,52.5,55,55,-142.5,-150,-150,,,,
DQ,Danielle Sebek,F,SBD,FR-O,67.5,Raw,1995,,IL,66.2,-135,-140,-140,,80,85,-87.5,85,130,137.5,-145,137.5,,,
DQ,Natasha Komperud,F,SBD,FR-O,67.5,Raw,2002,Bluedevil's Powerlifting Club,WI,67.25,-150,-150,-150,,47.5,52.5,57.5,57.5,132.5,145,-157.5,145,,,
1,Olivia Nicolarsen,F,SBD,FR-O,82.5,Raw,1997,,NE,80,160,167.5,-175,167.5,92.5,95,-100,95,155,167.5,175,175,437.5,,
2,Carol Fortman,F,SBD,FR-O,82.5,Raw,1988,,MN,80.2,127.5,137.5,140,140,82.5,85,87.5,87.5,165,175,182.5,182.5,410,,
3,Kate Regganie,F,SBD,FR-O,82.5,Raw,1997,,IL,78.05,132.5,142.5,-147.5,142.5,85,90,95,95,145,155,162.5,162.5,400,,
4,Victoria Hoppe,F,SBD,FR-O,82.5,Raw,1995,,WI,80.8,137.5,147.5,-152.5,147.5,75,80,-82.5,80,-160,160,-170,160,387.5,,
5,Michelle Bovenizer,F,SBD,FR-O,82.5,Raw,1989,,IL,80.8,115,120,125,125,62.5,67.5,70,70,165,175,185,185,380,,
DQ,Callie Ann Warne,F,SBD,FR-O,82.5,Raw,1994,,MN,77.9,-150,-150,-150,,90,100,-102.5,100,165,182.5,-185,182.5,,,
1,Sydney Kanthack,F,SBD,FR-T2,56,Raw,2006,,MN,55.8,72.5,77.5,82.5,82.5,-42.5,42.5,45,45,-100,105,-115,105,232.5,,
1,Kylie Burch,F,SBD,FR-T2,90,Raw,2006,,WI,84.45,130,132.5,137.5,137.5,45,50,-52.5,50,135,142.5,152.5,152.5,340,,
1,Greyson Plaski,F,SBD,FR-T2,67.5,Raw,2006,,WI,66.35,102.5,107.5,-115,107.5,55,-60,-60,55,137.5,142.5,152.5,152.5,315,,
2,Peyton Larson,F,SBD,FR-T2,67.5,Raw,2006,,MN,63.3,75,82.5,-97.5,82.5,37.5,40,-47.5,40,-102.5,102.5,115,115,237.5,,
1,Paige Kudej,F,SBD,FR-T3,75,Raw,2003,,IA,73.05,140,145,152.5,152.5,75,-77.5,77.5,77.5,147.5,157.5,165,165,395,,
2,Libby Reitmeier,F,SBD,FR-T3,75,Raw,2005,,MN,72.5,115,122.5,127.5,127.5,67.5,72.5,75,75,130,137.5,-142.5,137.5,340,,
1,Lea Connolly,F,SBD,FR-T3,67.5,Raw,2003,Bluedevil's Powerlifting Club,WI,66.35,122.5,132.5,145,145,57.5,62.5,67.5,67.5,125,135,142.5,142.5,355,,
DQ,Catherine Lorentz,F,SBD,FR-T3,67.5,Raw,2005,,MN,64.05,92.5,102.5,-107.5,102.5,-50,52.5,55,55,-142.5,-150,-150,,,,
1,Kara Edington,F,SBD,FR-T3,82.5,Raw,2004,,WI,77.85,-135,135,142.5,142.5,55,62.5,-70,62.5,130,137.5,-142.5,137.5,342.5,,
G,Ethan Marshall,M,SBD,MR-G,90,Raw,2003,,VA,88.35,262.5,280,287.5,287.5,185,200,207.5,207.5,255,275,285,285,780,,
G,Niles Prestine,M,SBD,MR-G,100,Raw,2002,,MN,93.95,-180,190,200,200,130,140,145,145,242.5,252.5,257.5,257.5,602.5,,
DQ,Morgan Brough,M,SBD,MR-G,110,Raw,2001,,KY,103.7,-202.5,-212.5,-212.5,,137.5,145,-150,145,240,255,-265,255,,,
G,Aiden Gates,M,SBD,MR-G,82.5,Raw,2004,,NC,81.25,-230,230,235,235,140,147.5,152.5,152.5,265,-277.5,282.5,282.5,670,,
1,Nathaniel Smith,M,SBD,MR-Jr,75,Raw,1999,,IA,73.45,-190,205,-215,205,107.5,115,117.5,117.5,227.5,247.5,265,265,587.5,,
2,Logun Schelander,M,SBD,MR-Jr,75,Raw,2001,,MN,73.5,160,-170,170,170,115,125,132.5,132.5,250,260,267.5,267.5,570,,
3,Hunter Birozy,M,SBD,MR-Jr,75,Raw,2002,,SD,74.95,-182.5,182.5,200,200,102.5,110,-115,110,217.5,230,240,240,550,,
4,Misha Gansvind,M,SBD,MR-Jr,75,Raw,2001,,NE,72.5,172.5,182.5,190,190,120,127.5,132.5,132.5,195,205,217.5,217.5,540,,
5,Gavin Weltz,M,SBD,MR-Jr,75,Raw,2003,,IA,73.7,165,177.5,-182.5,177.5,-110,115,122.5,122.5,190,205,220,220,520,,
1,Henry Amadi,M,SBD,MR-Jr,90,Raw,2001,,MN,88.85,245,260,277.5,277.5,142.5,150,160,160,277.5,295,310,310,747.5,,
2,Connor Ernst,M,SBD,MR-Jr,90,Raw,2000,,WI,87.25,220,232.5,247.5,247.5,165,175,-177.5,175,227.5,245,255,255,677.5,,
3,Connor Schauer,M,SBD,MR-Jr,90,Raw,2000,Integrative Strength Systems,MN,87.9,232.5,-245,245,245,137.5,142.5,-147.5,142.5,267.5,-277.5,-277.5,267.5,655,,
4,Jacob Bostrack,M,SBD,MR-Jr,90,Raw,2003,Integrative Strength Systems,MN,88.75,195,207.5,215,215,-155,160,170,170,225,235,-245,235,620,,
5,Jonah Tran,M,SBD,MR-Jr,90,Raw,2001,Team Outlier,NE,86.1,-215,215,227.5,227.5,122.5,127.5,-132.5,127.5,230,242.5,252.5,252.5,607.5,,
6,Jordan Vandehei,M,SBD,MR-Jr,90,Raw,2002,,WI,89,215,-225,-230,215,140,145,147.5,147.5,230,-245,245,245,607.5,,
7,James Terry,M,SBD,MR-Jr,90,Raw,2000,,MN,88.85,207.5,222.5,-232.5,222.5,142.5,155,-162.5,155,182.5,205,215,215,592.5,,
8,Bridger Zakovich,M,SBD,MR-Jr,90,Raw,1999,,MN,82.6,182.5,192.5,-200,192.5,107.5,115,117.5,117.5,220,235,-240,235,545,,
9,David Chan #2,M,SBD,MR-Jr,90,Raw,2002,,IA,85.85,177.5,192.5,200,200,115,122.5,125,125,200,212.5,-227.5,212.5,537.5,,
10,Owen Culshaw-Klein,M,SBD,MR-Jr,90,Raw,2003,,MN,87.8,165,175,182.5,182.5,100,105,-110,105,190,205,215,215,502.5,,
11,James Palmer,M,SBD,MR-Jr,90,Raw,2000,,ND,87.65,-152.5,152.5,170,170,105,112.5,115,115,175,187.5,200,200,485,,
1,William Browne,M,SBD,MR-Jr,100,Raw,2000,,WI,94.7,220,225,230,230,140,-147.5,147.5,147.5,255,265,275,275,652.5,,
2,Thomas Andersen,M,SBD,MR-Jr,100,Raw,2000,,WI,97.45,240,252.5,265,265,-142.5,142.5,145,145,200,225,-240,225,635,,
3,Austin Johnson #1,M,SBD,MR-Jr,100,Raw,2000,,MN,98.15,220,230,235,235,137.5,145,150,150,230,-242.5,,230,615,,
4,William Crayne,M,SBD,MR-Jr,100,Raw,1999,,MN,92.85,190,192.5,205,205,160,172.5,-182.5,172.5,220,230,235,235,612.5,,
5,Rafael Larosiliere,M,SBD,MR-Jr,100,Raw,2001,,WI,96.95,190,-205,210,210,140,150,155,155,200,220,242.5,242.5,607.5,,
6,River Zumach,M,SBD,MR-Jr,100,Raw,2003,,WI,98.85,215,227.5,-235,227.5,140,145,-152.5,145,217.5,230,235,235,607.5,,
7,Noah Richards,M,SBD,MR-Jr,100,Raw,2002,,MN,95.25,-225,-235,240,240,120,125,-130,125,-202.5,-210,210,210,575,,
8,Nick Beierman,M,SBD,MR-Jr,100,Raw,2003,,MN,96.3,202.5,215,217.5,217.5,110,115,120,120,212.5,227.5,237.5,237.5,575,,
9,Gage Oldenburg,M,SBD,MR-Jr,100,Raw,2002,,WI,97.35,197.5,205,-212.5,205,115,120,122.5,122.5,200,207.5,-220,207.5,535,,
1,Spencer Gerschutz,M,SBD,MR-Jr,110,Raw,2002,,OH,106.5,247.5,260,-272.5,260,165,175,-182.5,175,265,277.5,290,290,725,,
2,Ethan King,M,SBD,MR-Jr,110,Raw,2001,,WI,100.5,230,240,-250,240,155,-162.5,-162.5,155,290,300,-305,300,695,,
DQ,Andreas Escalante,M,SBD,MR-Jr,110,Raw,2002,,OH,109.6,200,-215,-215,200,-150,-150,-150,,,,,,,,
1,Miguel Mercado Jr,M,SBD,MR-Jr,125,Raw,2002,,WI,118.35,250,-262.5,-270,250,170,175,177.5,177.5,252.5,267.5,277.5,277.5,705,,
2,Devon Spande,M,SBD,MR-Jr,125,Raw,2002,,KY,118.3,215,227.5,-235,227.5,142.5,150,155,155,255,270,282.5,282.5,665,,
3,Gavin Pronschinske,M,SBD,MR-Jr,125,Raw,2002,Bluedevil's Powerlifting Club,MN,112.7,192.5,202.5,-217.5,202.5,112.5,120,-125,120,217.5,225,-232.5,225,547.5,,
DQ,Andrew Rinker,M,SBD,MR-Jr,125,Raw,1999,,IA,114.9,-230,-230,-230,,160,165,-172.5,165,250,265,-277.5,265,,,
1,Isaiah Rolli,M,SBD,MR-Jr,140,Raw,2000,Bluedevil's Powerlifting Club,WI,136.35,280,295,,295,187.5,197.5,-205,197.5,265,275,280,280,772.5,,
1,Neal Dooley,M,SBD,MR-Jr,140+,Raw,1999,,MN,152.35,255,265,275,275,137.5,142.5,-147.5,142.5,220,235,255,255,672.5,,
2,Jake Hylen,M,SBD,MR-Jr,140+,Raw,2001,Bluedevil's Powerlifting Club,WI,180.75,195,205,,205,150,-160,160,160,240,-255,255,255,620,,
1,Minh Doan,M,SBD,MR-Jr,67.5,Raw,2003,,MN,67.5,160,172.5,182.5,182.5,147.5,155,160,160,190,200,207.5,207.5,550,,
1,Jason Liu,M,SBD,MR-Jr,82.5,Raw,2000,,IL,80.85,212.5,225,237.5,237.5,152.5,160,165,165,242.5,257.5,272.5,272.5,675,,
2,Le Phan,M,SBD,MR-Jr,82.5,Raw,2000,,MN,81.55,160,170,-180,170,95,100,105,105,205,215,-222.5,215,490,,
DQ,Alejandro Flores,M,SBD,MR-Jr,82.5,Raw,2001,,IL,81.35,-155,-155,-155,,,,,,,,,,,,
1,Matt Hogen,M,SBD,MR-M1,100,Raw,1982,,MN,93.15,215,-225,225,225,107.5,-112.5,-112.5,107.5,220,-230,230,230,562.5,,
2,Zack Austin #1,M,SBD,MR-M1,100,Raw,1974,,MO,98.95,177.5,192.5,-212.5,192.5,130,-140,140,140,200,220,-230,220,552.5,,
1,Scott Spencer,M,SBD,MR-M1,82.5,Raw,1980,,MN,81.85,200,210,-215,210,160,-162.5,162.5,162.5,220,227.5,235,235,607.5,,
2,Ernest Draper,M,SBD,MR-M1,82.5,Raw,1976,,MN,81.45,177.5,-185,-187.5,177.5,147.5,-150,150,150,230,242.5,260,260,587.5,,
3,Garrett Bauer,M,SBD,MR-M1,82.5,Raw,1980,Integrative Strength Systems,MN,82.3,175,185,-192.5,185,115,122.5,127.5,127.5,210,220,230,230,542.5,,
1,Matthew Sanders,M,SBD,MR-M2,110,Raw,1968,,MO,103.8,112.5,120,125,125,132.5,140,142.5,142.5,152.5,162.5,170,170,437.5,,
1,Rich Hayes,M,SBD,MR-M3,90,Raw,1960,,IA,89.35,142.5,152.5,155,155,107.5,-115,-115,107.5,147.5,160,-167.5,160,422.5,,
1,Gregory Vitel,M,SBD,MR-M3,100,Raw,1962,,MN,97.55,140,150,160,160,120,-125,-125,120,175,187.5,195,195,475,,
1,Tristan Haque,M,SBD,MR-O,56,Raw,1999,,WI,55.95,182.5,190,-195,190,110,115,-120,115,202.5,212.5,-225,212.5,517.5,,
2,Zone Vang,M,SBD,MR-O,56,Raw,1994,,WI,55.1,137.5,-140,147.5,147.5,107.5,112.5,-117.5,112.5,170,180,-182.5,180,440,,
1,Nicholas Kurtz,M,SBD,MR-O,60,Raw,2003,,MN,60,142.5,150,155,155,85,90,-92.5,90,175,182.5,-187.5,182.5,427.5,,
1,Aliki Hui,M,SBD,MR-O,75,Raw,1996,,IL,72.85,230,240,245,245,150,155,160,160,267.5,282.5,287.5,287.5,692.5,,
2,Michael Sysavan,M,SBD,MR-O,75,Raw,2004,,WI,74.15,-210,222.5,232.5,232.5,140,147.5,-152.5,147.5,235,250,267.5,267.5,647.5,,
3,John Le,M,SBD,MR-O,75,Raw,1998,,WI,74.7,222.5,232.5,-240,232.5,140,150,-152.5,150,242.5,252.5,262.5,262.5,645,,
4,Kyle Smith #3,M,SBD,MR-O,75,Raw,1996,,MO,72.8,197.5,207.5,215,215,145,152.5,157.5,157.5,240,255,-265,255,627.5,,
5,Nathaniel Smith,M,SBD,MR-O,75,Raw,1999,,IA,73.45,-190,205,-215,205,107.5,115,117.5,117.5,227.5,247.5,265,265,587.5,,
6,Sam Zittel,M,SBD,MR-O,75,Raw,2003,,WI,67.75,180,187.5,192.5,192.5,147.5,155,157.5,157.5,200,210,-215,210,560,,
7,Misha Gansvind,M,SBD,MR-O,75,Raw,2001,,NE,72.5,172.5,182.5,190,190,120,127.5,132.5,132.5,195,205,217.5,217.5,540,,
8,Gavin Weltz,M,SBD,MR-O,75,Raw,2003,,IA,73.7,165,177.5,-182.5,177.5,-110,115,122.5,122.5,190,205,220,220,520,,
9,Nicolas Sandberg,M,SBD,MR-O,75,Raw,2003,,MN,74.1,177.5,187.5,192.5,192.5,115,-120,125,125,187.5,197.5,-205,197.5,515,,
10,Anthony Kringstad,M,SBD,MR-O,75,Raw,1987,,ND,73.31,165,172.5,-175,172.5,102.5,-105,-105,102.5,215,225,-230,225,500,,
11,Kaw Hser,M,SBD,MR-O,75,Raw,1998,,WI,73.65,185,-197.5,197.5,197.5,100,105,110,110,162.5,175,-187.5,175,482.5,,
12,Colten Aune,M,SBD,MR-O,75,Raw,2004,Bluedevil's Powerlifting Club,WI,70.2,120,132.5,-140,132.5,82.5,90,-95,90,165,177.5,-187.5,177.5,400,,
DQ,Brady Flasch,M,SBD,MR-O,75,Raw,2003,,WI,73.3,-212.5,-212.5,-212.5,,147.5,155,160,160,242.5,-250,-255,242.5,,,
1,Henry Amadi,M,SBD,MR-O,90,Raw,2001,,MN,88.85,245,260,277.5,277.5,142.5,150,160,160,277.5,295,310,310,747.5,,
2,Ryder Reed,M,SBD,MR-O,90,Raw,1994,,MN,87.6,240,252.5,-260,252.5,167.5,177.5,-182.5,177.5,287.5,302.5,-317.5,302.5,732.5,,
3,Nicholas Makras,M,SBD,MR-O,90,Raw,1997,,OH,88.85,-250,267.5,-275,267.5,152.5,162.5,170,170,250,270,-277.5,270,707.5,,
4,Samuel Marusic,M,SBD,MR-O,90,Raw,1995,,WI,89.35,247.5,-260,260,260,140,-145,145,145,275,290,-300,290,695,,
5,Elly Jdaidany,M,SBD,MR-O,90,Raw,1997,,IL,87.7,240,-255,-255,240,160,170,175,175,240,260,275,275,690,,
6,Samuel Sears,M,SBD,MR-O,90,Raw,1993,Team Outlier,NE,89,225,235,242.5,242.5,147.5,155,160,160,245,255,-270,255,657.5,,
7,Connor Schauer,M,SBD,MR-O,90,Raw,2000,Integrative Strength Systems,MN,87.9,232.5,-245,245,245,137.5,142.5,-147.5,142.5,267.5,-277.5,-277.5,267.5,655,,
8,Anthony Van Thomme,M,SBD,MR-O,90,Raw,1997,,IA,87,200,210,215,215,170,180,182.5,182.5,235,252.5,-257.5,252.5,650,,
9,Sami Salame,M,SBD,MR-O,90,Raw,1998,,MN,86.75,215,-230,-235,215,167.5,-177.5,177.5,177.5,222.5,235,250,250,642.5,,
10,Tyler Tran,M,SBD,MR-O,90,Raw,1998,,MN,88.55,-200,200,210,210,140,147.5,-155,147.5,255,267.5,275,275,632.5,,
11,Kyle Rickert,M,SBD,MR-O,90,Raw,1994,,MN,88,200,210,220,220,-140,145,155,155,225,237.5,245,245,620,,
12,Jacob Bostrack,M,SBD,MR-O,90,Raw,2003,Integrative Strength Systems,MN,88.75,195,207.5,215,215,-155,160,170,170,225,235,-245,235,620,,
13,Jose Velgara-Rivera Jr,M,SBD,MR-O,90,Raw,2003,,IL,89.25,190,200,210,210,107.5,115,-125,115,200,-215,225,225,550,,
14,Owen Culshaw-Klein,M,SBD,MR-O,90,Raw,2003,,MN,87.8,165,175,182.5,182.5,100,105,-110,105,190,205,215,215,502.5,,
15,James Palmer,M,SBD,MR-O,90,Raw,2000,,ND,87.65,-152.5,152.5,170,170,105,112.5,115,115,175,187.5,200,200,485,,
DQ,Adam Kleinfehn,M,SBD,MR-O,90,Raw,1996,,MN,88.8,202.5,215,-225,215,130,135,137.5,137.5,-272.5,-272.5,-272.5,,,,
1,Tommy Schneider,M,SBD,MR-O,100,Raw,1994,,MN,98.9,250,265,275,275,152.5,177.5,-180,177.5,282.5,287.5,295,295,747.5,,
2,Chad Mara,M,SBD,MR-O,100,Raw,1997,,WI,99.2,-242.5,-242.5,242.5,242.5,160,170,175,175,275,295,302.5,302.5,720,,
3,Isaiah Carrington,M,SBD,MR-O,100,Raw,1995,,IL,99.5,247.5,-265,-265,247.5,160,-170,-170,160,285,305,-315,305,712.5,,
4,Zachary Marquez,M,SBD,MR-O,100,Raw,2003,,IL,98.25,230,242.5,255,255,140,150,155,155,255,270,285,285,695,,
5,Ethan Sanders,M,SBD,MR-O,100,Raw,1992,,MO,98.75,240,250,262.5,262.5,135,142.5,-145,142.5,265,285,-295,285,690,,
6,Ravem Noguerraza,M,SBD,MR-O,100,Raw,1997,Integrative Strength Systems,MN,97.2,230,242.5,-250,242.5,145,150,152.5,152.5,270,280,-285,280,675,,
7,Blaise Smits,M,SBD,MR-O,100,Raw,2003,,WI,98.85,-257.5,257.5,-265,257.5,135,-137.5,137.5,137.5,260,265,270,270,665,,
8,Zachery Ditson,M,SBD,MR-O,100,Raw,1997,Team Outlier,NE,96.65,215,227.5,240,240,135,142.5,-147.5,142.5,240,-255,255,255,637.5,,
9,Elyas Hirsi,M,SBD,MR-O,100,Raw,1997,,MN,97.05,190,205,212.5,212.5,115,122.5,-127.5,122.5,265,280,292.5,292.5,627.5,,
10,Jason Neukom,M,SBD,MR-O,100,Raw,1985,,WI,96.1,200,-212.5,-215,200,145,152.5,157.5,157.5,235,247.5,-262.5,247.5,605,,
11,Jon Phan,M,SBD,MR-O,100,Raw,1998,Integrative Strength Systems,MN,96.4,195,-205,210,210,120,127.5,135,135,230,240,250,250,595,,
12,Gabe Amor,M,SBD,MR-O,100,Raw,1996,,MN,94.7,175,185,195,195,135,142.5,145,145,225,237.5,250,250,590,,
13,Noah Hanson,M,SBD,MR-O,100,Raw,1997,,MN,94.9,162.5,175,182.5,182.5,110,117.5,122.5,122.5,190,205,215,215,520,,
14,Austin Brown #2,M,SBD,MR-O,100,Raw,1995,,WI,96.85,-170,170,172.5,172.5,107.5,112.5,117.5,117.5,190,197.5,207.5,207.5,497.5,,
15,Nicolas Boldon,M,SBD,MR-O,100,Raw,1993,,MN,98.65,-142.5,157.5,-167.5,157.5,87.5,102.5,-115,102.5,167.5,175,182.5,182.5,442.5,,
1,Taylor Antisdel,M,SBD,MR-O,110,Raw,1991,Integrative Strength Systems,MN,107.5,250,262.5,275,275,140,147.5,155,155,260,275,290,290,720,,
2,Airion Britt,M,SBD,MR-O,110,Raw,1990,,MN,109.1,250,265,-275,265,152.5,-157.5,-157.5,152.5,282.5,292.5,-305,292.5,710,,
3,Brandon Valdez,M,SBD,MR-O,110,Raw,1996,,KS,107.65,245,260,-267.5,260,-180,190,192.5,192.5,240,255,-262.5,255,707.5,,
4,Justin Klinkel,M,SBD,MR-O,110,Raw,1995,,IA,109.95,240,-250,250,250,177.5,-180,-180,177.5,265,277.5,-285,277.5,705,,
5,Ethan King,M,SBD,MR-O,110,Raw,2001,,WI,100.5,230,240,-250,240,155,-162.5,-162.5,155,290,300,-305,300,695,,
6,Nash Lueken,M,SBD,MR-O,110,Raw,1990,,MN,107.85,247.5,262.5,-267.5,262.5,142.5,150,-157.5,150,252.5,267.5,-272.5,267.5,680,,
7,Eric Lewandowski,M,SBD,MR-O,110,Raw,1997,,MN,107.45,217.5,230,240,240,137.5,145,-150,145,265,277.5,290,290,675,,
8,Jake Christensen,M,SBD,MR-O,110,Raw,1998,Integrative Strength Systems,MN,101.45,-230,-235,235,235,140,147.5,152.5,152.5,270,-277.5,-277.5,270,657.5,,
9,Chris Mulholland,M,SBD,MR-O,110,Raw,1998,,SD,108.5,217.5,-230,-230,217.5,132.5,137.5,142.5,142.5,260,-275,-275,260,620,,
10,Cameron DiMambro,M,SBD,MR-O,110,Raw,2003,,IL,102.4,190,200,207.5,207.5,112.5,117.5,122.5,122.5,200,212.5,217.5,217.5,547.5,,
11,Andres Carrillo,M,SBD,MR-O,110,Raw,2007,Bluedevil's Powerlifting Club,WI,105.6,190,-205,-205,190,100,112.5,117.5,117.5,207.5,-220,-220,207.5,515,,
1,Benjamin Lawrence,M,SBD,MR-O,125,Raw,1997,Integrative Strength Systems,MN,117.4,285,295,305,305,180,185,190,190,290,-300,-300,290,785,,
2,Chase Ulrick,M,SBD,MR-O,125,Raw,1990,Integrative Strength Systems,MN,124.15,-265,265,277.5,277.5,187.5,-195,195,195,280,292.5,312.5,312.5,785,,
3,Samuel Belling,M,SBD,MR-O,125,Raw,1995,,WI,119.95,260,275,-280,275,202.5,215,-225,215,262.5,282.5,292.5,292.5,782.5,,
4,Miguel Mercado Jr,M,SBD,MR-O,125,Raw,2002,,WI,118.35,250,-262.5,-270,250,170,175,177.5,177.5,252.5,267.5,277.5,277.5,705,,
5,Devon Spande,M,SBD,MR-O,125,Raw,2002,,KY,118.3,215,227.5,-235,227.5,142.5,150,155,155,255,270,282.5,282.5,665,,
6,Eri Amezcua Cuellar,M,SBD,MR-O,125,Raw,1994,,WI,120.9,-235,240,-245,240,190,-197.5,-197.5,190,235,-240,-240,235,665,,
7,Cole Kocovsky,M,SBD,MR-O,125,Raw,1999,,MN,117.65,205,215,-225,215,-145,145,150,150,215,225,235,235,600,,
DQ,Andrew Rinker,M,SBD,MR-O,125,Raw,1999,,IA,114.9,-230,-230,-230,,160,165,-172.5,165,250,265,-277.5,265,,,
DQ,Leonel Cortes,M,SBD,MR-O,125,Raw,1991,,WI,123.5,-255,-267.5,-275,,165,172.5,-175,172.5,260,277.5,-285,277.5,,,
1,Isaiah Rolli,M,SBD,MR-O,140,Raw,2000,Bluedevil's Powerlifting Club,WI,136.35,280,295,,295,187.5,197.5,-205,197.5,265,275,280,280,772.5,,
2,Clinton Treichel,M,SBD,MR-O,140,Raw,1995,,ND,130.65,255,265,272.5,272.5,155,165,175,175,270,285,-295,285,732.5,,
1,Nathan Redwing,M,SBD,MR-O,140+,Raw,1986,,NE,154,317.5,325,332.5,332.5,232.5,242.5,-250,242.5,317.5,330,-337.5,330,905,,
2,Lucas Damm,M,SBD,MR-O,140+,Raw,1995,,MN,152.1,317.5,337.5,345,345,227.5,-235,-235,227.5,-305,305,-317.5,305,877.5,,
3,Jake Hylen,M,SBD,MR-O,140+,Raw,2001,Bluedevil's Powerlifting Club,WI,180.75,195,205,,205,150,-160,160,160,240,-255,255,255,620,,
1,Calvin Manivong,M,SBD,MR-O,67.5,Raw,1998,Integrative Strength Systems,IA,67.25,195,202.5,207.5,207.5,145,152.5,157.5,157.5,205,217.5,230,230,595,,
2,Kenny Truong,M,SBD,MR-O,67.5,Raw,2004,,KS,66.55,177.5,190,195,195,105,-110,-115,105,197.5,212.5,217.5,217.5,517.5,,
3,Braedon Pederson,M,SBD,MR-O,67.5,Raw,2003,Bluedevil's Powerlifting Club,WI,66,130,142.5,157.5,157.5,82.5,87.5,92.5,92.5,177.5,187.5,195,195,445,,
DQ,Brady Oleszak,M,SBD,MR-O,67.5,Raw,2003,,WI,67.25,-195,-195,-195,,,,,,,,,,,,
1,Nathan Drivas,M,SBD,MR-O,82.5,Raw,2005,,WI,81.55,222.5,237.5,-247.5,237.5,155,165,-172.5,165,242.5,255,265,265,667.5,,
2,Andrew Dickson,M,SBD,MR-O,82.5,Raw,1999,,IA,81.25,235,-245,-245,235,155,162.5,165,165,230,245,-260,245,645,,
3,Arif Immamdeen,M,SBD,MR-O,82.5,Raw,1994,,MN,80.5,-230,230,-240,230,135,142.5,-147.5,142.5,235,255,265,265,637.5,,
4,Mark McKeever,M,SBD,MR-O,82.5,Raw,1989,,MN,82.05,192.5,197.5,202.5,202.5,175,-180,-180,175,220,222.5,-225,222.5,600,,
5,Roberto Bernabei-Grassi,M,SBD,MR-O,82.5,Raw,1998,,WI,79.85,182.5,190,195,195,122.5,127.5,130,130,212.5,220,225,225,550,,
6,Garrett Bauer,M,SBD,MR-O,82.5,Raw,1980,Integrative Strength Systems,MN,82.3,175,185,-192.5,185,115,122.5,127.5,127.5,210,220,230,230,542.5,,
7,Le Phan,M,SBD,MR-O,82.5,Raw,2000,,MN,81.55,160,170,-180,170,95,100,105,105,205,215,-222.5,215,490,,
8,Buyun Liang,M,SBD,MR-O,82.5,Raw,1996,,MN,80.25,145,152.5,160,160,102.5,107.5,112.5,112.5,175,185,195,195,467.5,,
DQ,Alejandro Flores,M,SBD,MR-O,82.5,Raw,2001,,IL,81.35,-155,-155,-155,,,,,,,,,,,,
1,Aiden Long,M,SBD,MR-T1,75,Raw,2008,,MN,74.7,140,150,157.5,157.5,70,77.5,-85,77.5,160,185,-187.5,185,420,,
2,Luke White,M,SBD,MR-T1,75,Raw,2008,,MN,72,90,95,-102.5,95,45,-50,-50,45,150,155,-157.5,155,295,,
1,Adrian Larson,M,SBD,MR-T1,67.5,Raw,2008,,MN,66.5,-102.5,115,-120,115,60,65,-70,65,137.5,147.5,-155,147.5,327.5,,
1,Davis Freeman,M,SBD,MR-T2,75,Raw,2006,,MO,74.2,187.5,195,202.5,202.5,102.5,-110,-110,102.5,210,220,230,230,535,,
DQ,Braden Zoromski,M,SBD,MR-T2,75,Raw,2005,,WI,73.3,-160,-160,-160,,95,100,102.5,102.5,-75,-75,-75,,,,
1,Victor Le,M,SBD,MR-T2,90,Raw,2005,,NE,85.6,182.5,192.5,197.5,197.5,107.5,110,117.5,117.5,192.5,195,200,200,515,,
2,Jayce Hansen,M,SBD,MR-T2,90,Raw,2006,,WI,87.9,147.5,157.5,160,160,95,97.5,-100,97.5,190,195,202.5,202.5,460,,
1,Matthew Nash,M,SBD,MR-T2,100,Raw,2005,,MN,99.75,207.5,215,-220,215,107.5,115,-120,115,-265,-265,265,265,595,,
2,Daniel Downey,M,SBD,MR-T2,100,Raw,2006,,MO,98.3,170,180,-185,180,-110,-115,115,115,180,190,-200,190,485,,
1,Andres Carrillo,M,SBD,MR-T2,110,Raw,2007,Bluedevil's Powerlifting Club,WI,105.6,190,-205,-205,190,100,112.5,117.5,117.5,207.5,-220,-220,207.5,515,,
1,Wyatt Christian,M,SBD,MR-T2,125,Raw,2005,,WI,122.55,192.5,-207.5,-215,192.5,125,130,-137.5,130,235,-245,-252.5,235,557.5,,
1,Nathan Drivas,M,SBD,MR-T2,82.5,Raw,2005,,WI,81.55,222.5,237.5,-247.5,237.5,155,165,-172.5,165,242.5,255,265,265,667.5,,
2,Gabriel Newbauer,M,SBD,MR-T2,82.5,Raw,2006,,MN,75.65,152.5,162.5,170,170,90,95,97.5,97.5,170,175,185,185,452.5,,
3,Ahmed Mohammed,M,SBD,MR-T2,82.5,Raw,2006,,IA,80.75,167.5,-177.5,-180,167.5,-90,95,100,100,167.5,177.5,-185,177.5,445,,
1,Nicholas Kurtz,M,SBD,MR-T3,60,Raw,2003,,MN,60,142.5,150,155,155,85,90,-92.5,90,175,182.5,-187.5,182.5,427.5,,
1,Michael Sysavan,M,SBD,MR-T3,75,Raw,2004,,WI,74.15,-210,222.5,232.5,232.5,140,147.5,-152.5,147.5,235,250,267.5,267.5,647.5,,
2,Sam Zittel,M,SBD,MR-T3,75,Raw,2003,,WI,67.75,180,187.5,192.5,192.5,147.5,155,157.5,157.5,200,210,-215,210,560,,
3,Brandon Valeroso,M,SBD,MR-T3,75,Raw,2004,,IL,73.05,190,197.5,202.5,202.5,105,112.5,115,115,202.5,212.5,227.5,227.5,545,,
4,Kale Bockelman,M,SBD,MR-T3,75,Raw,2004,,MN,74.7,185,195,-205,195,100,107.5,115,115,212.5,235,-250,235,545,,
5,Tony Rodriguez #5,M,SBD,MR-T3,75,Raw,2003,,IL,71.8,180,192.5,205,205,102.5,107.5,-112.5,107.5,197.5,212.5,220,220,532.5,,
6,Nicolas Sandberg,M,SBD,MR-T3,75,Raw,2003,,MN,74.1,177.5,187.5,192.5,192.5,115,-120,125,125,187.5,197.5,-205,197.5,515,,
7,Kadin Brabender,M,SBD,MR-T3,75,Raw,2004,,MN,73.9,147.5,150,-155,150,100,-105,-105,100,215,-222.5,,215,465,,
8,Nicholas Johnson #3,M,SBD,MR-T3,75,Raw,2003,,WI,72.2,142.5,150,152.5,152.5,100,105,107.5,107.5,152.5,162.5,172.5,172.5,432.5,,
9,Colten Aune,M,SBD,MR-T3,75,Raw,2004,Bluedevil's Powerlifting Club,WI,70.2,120,132.5,-140,132.5,82.5,90,-95,90,165,177.5,-187.5,177.5,400,,
DQ,Brady Flasch,M,SBD,MR-T3,75,Raw,2003,,WI,73.3,-212.5,-212.5,-212.5,,147.5,155,160,160,242.5,-250,-255,242.5,,,
1,Blayne Kildahl,M,SBD,MR-T3,90,Raw,2004,,MN,88.8,245,260,272.5,272.5,145,152.5,160,160,280,295,305,305,737.5,,
2,Samuel Friedrich,M,SBD,MR-T3,90,Raw,2003,,MI,88.7,255,275,287.5,287.5,160,170,175,175,272.5,-287.5,-287.5,272.5,735,,
3,Milo Arlinghaus,M,SBD,MR-T3,90,Raw,2003,,MN,90,-265,272.5,-282.5,272.5,140,147.5,150,150,270,287.5,305,305,727.5,,
4,Noah Mills,M,SBD,MR-T3,90,Raw,2003,,MN,87.45,230,240,-250,240,145,150,155,155,275,287.5,-302.5,287.5,682.5,,
5,Gavin Quiroz,M,SBD,MR-T3,90,Raw,2004,,WI,88.8,197.5,205,215,215,110,-117.5,120,120,215,227.5,-240,227.5,562.5,,
6,Jose Velgara-Rivera Jr,M,SBD,MR-T3,90,Raw,2003,,IL,89.25,190,200,210,210,107.5,115,-125,115,200,-215,225,225,550,,
1,Zachary Marquez,M,SBD,MR-T3,100,Raw,2003,,IL,98.25,230,242.5,255,255,140,150,155,155,255,270,285,285,695,,
2,Blaise Smits,M,SBD,MR-T3,100,Raw,2003,,WI,98.85,-257.5,257.5,-265,257.5,135,-137.5,137.5,137.5,260,265,270,270,665,,
3,Isaac Meade,M,SBD,MR-T3,100,Raw,2003,,IA,91.35,-200,215,-222.5,215,117.5,125,-130,125,245,-262.5,265,265,605,,
1,Tylor Peck,M,SBD,MR-T3,110,Raw,2004,,MO,107.5,255,257.5,265,265,180,185,190,190,262.5,270,275,275,730,,
2,Cameron DiMambro,M,SBD,MR-T3,110,Raw,2003,,IL,102.4,190,200,207.5,207.5,112.5,117.5,122.5,122.5,200,212.5,217.5,217.5,547.5,,
1,Kenny Truong,M,SBD,MR-T3,67.5,Raw,2004,,KS,66.55,177.5,190,195,195,105,-110,-115,105,197.5,212.5,217.5,217.5,517.5,,
2,Braedon Pederson,M,SBD,MR-T3,67.5,Raw,2003,Bluedevil's Powerlifting Club,WI,66,130,142.5,157.5,157.5,82.5,87.5,92.5,92.5,177.5,187.5,195,195,445,,
DQ,Trevor Anderson,M,SBD,MR-T3,67.5,Raw,2004,,SD,66.6,-160,-165,-165,,95,100,-102.5,100,205,-215,-227.5,205,,,
DQ,Brady Oleszak,M,SBD,MR-T3,67.5,Raw,2003,,WI,67.25,-195,-195,-195,,,,,,,,,,,,
1,Terran Romer,M,SBD,MR-T3,82.5,Raw,2004,Integrative Strength Systems,IA,81.15,210,220,-227.5,220,140,145,-147.5,145,230,240,245,245,610,,
2,Aaron Torres Jr,M,SBD,MR-T3,82.5,Raw,2005,,IL,77.5,175,182.5,185,185,97.5,102.5,-105,102.5,200,-215,-217.5,200,487.5,,
1,Austin Oakley,M,SBD,MR-Y3,100,Raw,2009,,IN,96.85,165,170,175,175,-121,121,-122.5,121,180,190.5,195,195,491,,
