Division,WeightClassKg,Place,Name,Team,BodyweightKg,Best3SquatKg,Best3BenchKg,Best3DeadliftKg,TotalKg,Equipment,Event,Sex
Boys,51.71,1,David Vega,Freeport Brazosport,51.71,145.15,92.99,158.76,396.89,Single-ply,SBD,M
Boys,51.71,2,Jake Nash,Alvin,50.89,145.15,92.99,102.06,340.19,Single-ply,SBD,M
Boys,55.79,3,Randall Holland,Clute Brazoswood,51.8,115.67,68.04,117.93,301.64,Single-ply,SBD,M
Boys,51.71,4,Tyler Smith #11,West Columbia,51.71,88.45,63.5,102.06,254.01,Single-ply,SBD,M
Boys,51.71,5,Matt Durham,West Columbia,51.53,86.18,43.09,90.72,219.99,Single-ply,SBD,M
Boys,55.79,1,Kris Valenzuela,Freeport Brazosport,53.61,142.88,83.91,154.22,381.02,Single-ply,SBD,M
Boys,55.79,2,DeMarco Corner,Manvel,54.88,117.93,61.23,142.88,322.05,Single-ply,SBD,M
Boys,55.79,3,Greg Gomez,West Columbia,53.25,111.13,70.31,127.01,308.44,Single-ply,SBD,M
Boys,55.79,4,Chandresh Patel,Alvin,52.53,111.13,54.43,113.4,278.96,Single-ply,SBD,M
Boys,55.79,5,Chase Dalby,Angleton,52.98,92.99,56.7,90.72,240.4,Single-ply,SBD,M
Boys,55.79,DQ,Albert Mata #2,Angleton,54.7,149.69,68.04,,,Single-ply,SBD,M
Boys,59.87,1,Cody Viteritto,Alvin,56.06,142.88,92.99,167.83,403.7,Single-ply,SBD,M
Boys,59.87,2,Alex Rios-Cox,Manvel,58.69,145.15,70.31,149.69,365.14,Single-ply,SBD,M
Boys,59.87,3,Floyd Bess,West Columbia,59.6,136.08,61.23,165.56,362.87,Single-ply,SBD,M
Boys,67.13,4,Nick Rodriguez #3,Manvel,60.06,129.27,79.38,140.61,349.27,Single-ply,SBD,M
Boys,59.87,5,Eduardo Trevino,Clute Brazoswood,57.33,120.2,70.31,142.88,333.39,Single-ply,SBD,M
Boys,67.13,1,Travis Clinton,Clute Brazoswood,66.41,183.7,106.59,172.37,462.66,Single-ply,SBD,M
Boys,67.13,2,Nick Washington,Angleton,66.77,158.76,115.67,181.44,455.86,Single-ply,SBD,M
Boys,74.84,3,James Hatcher,Alvin,67.22,172.37,92.99,188.24,453.59,Single-ply,SBD,M
Boys,67.13,4,Justin Hussey,West Columbia,64.14,181.44,99.79,165.56,446.79,Single-ply,SBD,M
Boys,74.84,5,Hayden Trask,Manvel,67.31,142.88,92.99,185.97,421.84,Single-ply,SBD,M
Boys,74.84,1,Alfredo Washington,Manvel,71.58,204.12,127.01,183.7,514.83,Single-ply,SBD,M
Boys,74.84,2,Nick Fields,Freeport Brazosport,70.49,176.9,115.67,215.46,508.02,Single-ply,SBD,M
Boys,74.84,3,Melancon Kaylon,Manvel,73.3,190.51,113.4,199.58,503.49,Single-ply,SBD,M
Boys,74.84,4,Richard Cooper #2,Freeport Brazosport,71.58,138.35,115.67,151.95,405.97,Single-ply,SBD,M
Boys,74.84,DQ,Dustin Wellman,Clute Brazoswood,72.03,183.7,,,,Single-ply,SBD,M
Boys,74.84,DQ,Cody Langford,West Columbia,73.12,136.08,,,,Single-ply,SBD,M
Boys,82.1,1,Dexter Brown,Freeport Brazosport,81.19,208.65,131.54,206.38,546.58,Single-ply,SBD,M
Boys,82.1,2,Corey Otwell,Manvel,79.65,174.63,117.93,195.04,487.61,Single-ply,SBD,M
Boys,82.1,3,Dalton Duke,West Columbia,80.74,170.1,99.79,199.58,469.47,Single-ply,SBD,M
Boys,82.1,4,Jay Boniaby,Clute Brazoswood,79.56,195.04,106.59,163.29,464.93,Single-ply,SBD,M
Boys,82.1,5,Trenard Taplin,Manvel,78.93,151.95,102.06,190.51,444.52,Single-ply,SBD,M
Boys,82.1,6,Travis McQueen,West Columbia,81.74,156.49,92.99,183.7,433.18,Single-ply,SBD,M
Boys,82.1,DQ,Sean Flannel,West Columbia,77.93,,,,,Single-ply,SBD,M
Boys,89.81,1,Troi Johnson,Clute Brazoswood,88.72,235.87,142.88,254.01,632.76,Single-ply,SBD,M
Boys,89.81,2,Khristian Blaylock,Clute Brazoswood,85,240.4,136.08,231.33,607.81,Single-ply,SBD,M
Boys,89.81,3,Thomas Steuart,West Columbia,87.45,181.44,113.4,190.51,485.34,Single-ply,SBD,M
Boys,89.81,4,Arthur Office,Manvel,87.09,149.69,83.91,170.1,403.7,Single-ply,SBD,M
Boys,99.79,1,Scotty Bailey,Clute Brazoswood,97.34,281.23,174.63,244.94,700.8,Single-ply,SBD,M
Boys,99.79,2,Rodney Hall,Angleton,95.44,256.28,140.61,231.33,628.23,Single-ply,SBD,M
Boys,99.79,3,Quinton Bell,West Columbia,95.62,190.51,136.08,226.8,553.38,Single-ply,SBD,M
Boys,99.79,4,Chad Kresta,West Columbia,99.25,181.44,111.13,181.44,474,Single-ply,SBD,M
Boys,99.79,5,Marvin Chizer,Angleton,91.9,190.51,92.99,181.44,464.93,Single-ply,SBD,M
Boys,109.77,1,Jose Torres,Freeport Brazosport,109.13,254.01,151.95,249.48,655.44,Single-ply,SBD,M
Boys,109.77,2,Matt White,Alvin,102.24,233.6,163.29,226.8,623.69,Single-ply,SBD,M
Boys,109.77,3,Dylan Duke,West Columbia,109.77,226.8,133.81,242.67,603.28,Single-ply,SBD,M
Boys,109.77,4,Brandon Fogle,West Columbia,104.24,226.8,136.08,206.38,569.26,Single-ply,SBD,M
Boys,109.77,5,Taylor Romero,Manvel,104.69,183.7,97.52,219.99,501.22,Single-ply,SBD,M
Boys,124.74,1,Eric Christ,Manvel,114.03,240.4,142.88,224.53,607.81,Single-ply,SBD,M
Boys,124.74,2,Vincen Shorter,West Columbia,112.67,224.53,145.15,219.99,589.67,Single-ply,SBD,M
Boys,124.74,3,Aaron Boucher,West Columbia,110.68,222.26,140.61,219.99,582.87,Single-ply,SBD,M
Boys,124.74,4,Howard Lavender,West Columbia,117.39,219.99,111.13,210.92,542.04,Single-ply,SBD,M
Boys,124.74,DQ,Elias Garza,Clute Brazoswood,124.74,,,,,Single-ply,SBD,M
Boys,124.74+,1,Tc Jones,Angleton,143.43,263.08,158.76,240.4,662.24,Single-ply,SBD,M
Boys,124.74+,2,Anthony Madrigal,Freeport Brazosport,134.44,260.82,167.83,226.8,655.44,Single-ply,SBD,M
Boys,124.74+,3,Travis Romero,Manvel,134.9,210.92,131.54,210.92,553.38,Single-ply,SBD,M
Boys,124.74+,DQ,Sterling Diggs,Manvel,132.36,,,,,Single-ply,SBD,M
Boys,124.74+,DQ,Archiel Townsend,Clute Brazoswood,128.09,183.7,102.06,,,Single-ply,SBD,M
